name="ADS.apk" info_1="a6a4cc895ba318c74add62b63579ec35" info_2="0a9c28b418a63def5d3dd343774d44c8" location="app/ADS/ADS.apk"
name="AIUnit.apk" info_1="e8a71c3e5138520361de78048d6674b2" info_2="16e5c3459f965b0003043ed074e50744" location="app/AIUnit/AIUnit.apk"
name="AccessoryFramework.apk" info_1="e8a71c3e5138520361de78048d6674b2" info_2="16e5c3459f965b0003043ed074e50744" location="priv-app/AccessoryFramework/AccessoryFramework.apk"
name="Aod.apk" info_1="e8a71c3e5138520361de78048d6674b2" info_2="16e5c3459f965b0003043ed074e50744" location="app/Aod/Aod.apk"
name="BackupAndRestore.apk" info_1="737bfa449bcb3eda3736a87d00cca982" info_2="65b55f10bf2d77dc8a5aa58d8d8a18d0" location="del-app/BackupAndRestore/BackupAndRestore.apk"
name="COSA.apk" info_1="e8a71c3e5138520361de78048d6674b2" info_2="16e5c3459f965b0003043ed074e50744" location="app/COSA/COSA.apk"
name="Calculator2.apk" info_1="737bfa449bcb3eda3736a87d00cca982" info_2="65b55f10bf2d77dc8a5aa58d8d8a18d0" location="del-app/Calculator2/Calculator2.apk"
name="Calendar.apk" info_1="78a4b0ab79286d47485bf8241bb0b3f2" info_2="7c5203faceb2922d98b31a27db8b2513" location="del-app/Calendar/Calendar.apk"
name="CarLink.apk" info_1="737bfa449bcb3eda3736a87d00cca982" info_2="65b55f10bf2d77dc8a5aa58d8d8a18d0" location="app/CarLink/CarLink.apk"
name="ChildrenSpace.apk" info_1="737bfa449bcb3eda3736a87d00cca982" info_2="65b55f10bf2d77dc8a5aa58d8d8a18d0" location="app/ChildrenSpace/ChildrenSpace.apk"
name="Clock.apk" info_1="737bfa449bcb3eda3736a87d00cca982" info_2="65b55f10bf2d77dc8a5aa58d8d8a18d0" location="del-app/Clock/Clock.apk"
name="CodeBook.apk" info_1="737bfa449bcb3eda3736a87d00cca982" info_2="65b55f10bf2d77dc8a5aa58d8d8a18d0" location="app/CodeBook/CodeBook.apk"
name="ColorAccessibilityAssistant.apk" info_1="737bfa449bcb3eda3736a87d00cca982" info_2="65b55f10bf2d77dc8a5aa58d8d8a18d0" location="app/ColorAccessibilityAssistant/ColorAccessibilityAssistant.apk"
name="ColorDirectService.apk" info_1="737bfa449bcb3eda3736a87d00cca982" info_2="65b55f10bf2d77dc8a5aa58d8d8a18d0" location="app/ColorDirectService/ColorDirectService.apk"
name="ColorDirectUI.apk" info_1="737bfa449bcb3eda3736a87d00cca982" info_2="65b55f10bf2d77dc8a5aa58d8d8a18d0" location="app/ColorDirectUI/ColorDirectUI.apk"
name="ColorFavorite.apk" info_1="737bfa449bcb3eda3736a87d00cca982" info_2="65b55f10bf2d77dc8a5aa58d8d8a18d0" location="del-app/ColorFavorite/ColorFavorite.apk"
name="ColorfulEngine.apk" info_1="c3833dbad48a0fd077a60142e151e720" info_2="d204c659939c729c26bedd6131df6339" location="priv-app/ColorfulEngine/ColorfulEngine.apk"
name="DCS.apk" info_1="e8a71c3e5138520361de78048d6674b2" info_2="16e5c3459f965b0003043ed074e50744" location="priv-app/DCS/DCS.apk"
name="DSF.apk" info_1="e8a71c3e5138520361de78048d6674b2" info_2="16e5c3459f965b0003043ed074e50744" location="priv-app/DSF/DSF.apk"
name="DigitalKeyFramework.apk" info_1="609343c51bbce9849561f1d6d36983e7" info_2="258d59d4b2ae9e646537365ac4a627a5" location="app/DigitalKeyFramework/DigitalKeyFramework.apk"
name="DigitalWellBeing.apk" info_1="052a91686dcda693ea07232032b8dc25" info_2="13c91d742331110dc5816bd4bee6a6fa" location="app/DigitalWellBeing/DigitalWellBeing.apk"
name="Ether.apk" info_1="e8a71c3e5138520361de78048d6674b2" info_2="16e5c3459f965b0003043ed074e50744" location="app/Ether/Ether.apk"
name="FamilyGuard.apk" info_1="737bfa449bcb3eda3736a87d00cca982" info_2="65b55f10bf2d77dc8a5aa58d8d8a18d0" location="del-app/FamilyGuard/FamilyGuard.apk"
name="FileEncryption.apk" info_1="737bfa449bcb3eda3736a87d00cca982" info_2="65b55f10bf2d77dc8a5aa58d8d8a18d0" location="app/FileEncryption/FileEncryption.apk"
name="FileManager.apk" info_1="737bfa449bcb3eda3736a87d00cca982" info_2="65b55f10bf2d77dc8a5aa58d8d8a18d0" location="del-app/FileManager/FileManager.apk"
name="FindMyPhone.apk" info_1="737bfa449bcb3eda3736a87d00cca982" info_2="65b55f10bf2d77dc8a5aa58d8d8a18d0" location="priv-app/FindMyPhone/FindMyPhone.apk"
name="FloatAssistant.apk" info_1="737bfa449bcb3eda3736a87d00cca982" info_2="65b55f10bf2d77dc8a5aa58d8d8a18d0" location="app/FloatAssistant/FloatAssistant.apk"
name="GamePerformanceOpt.apk" info_1="e8a71c3e5138520361de78048d6674b2" info_2="16e5c3459f965b0003043ed074e50744" location="plugin/GamePerformanceOpt/GamePerformanceOpt.apk"
name="Health.apk" info_1="1ea76e89839efdc8777db491c5d75ec6" info_2="b8fcf5b64b529d7cc1d5fb9feacbe349" location="del-app/Health/Health.apk"
name="HealthCheck.apk" info_1="737bfa449bcb3eda3736a87d00cca982" info_2="65b55f10bf2d77dc8a5aa58d8d8a18d0" location="app/HealthCheck/HealthCheck.apk"
name="HeyCast.apk" info_1="e8a71c3e5138520361de78048d6674b2" info_2="16e5c3459f965b0003043ed074e50744" location="priv-app/HeyCast/HeyCast.apk"
name="HeySynergy.apk" info_1="e8a71c3e5138520361de78048d6674b2" info_2="16e5c3459f965b0003043ed074e50744" location="priv-app/HeySynergy/HeySynergy.apk"
name="Karaoke.apk" info_1="052a91686dcda693ea07232032b8dc25" info_2="13c91d742331110dc5816bd4bee6a6fa" location="app/Karaoke/Karaoke.apk"
name="KeKeUserCenter.apk" info_1="26516fdd66f7b16a47a17403f06e49c6" info_2="f112f4aaef3f6137e39ab5cbc98139df" location="priv-app/KeKeUserCenter/KeKeUserCenter.apk"
name="KeKeUserCenterAccount.apk" info_1="2ca72f694cf2b96e4b190b01487646ec" info_2="5b22fa5940ebc730dfa6d5df228ee801" location="priv-app/KeKeUserCenterAccount/KeKeUserCenterAccount.apk"
name="MDSService.apk" info_1="e8a71c3e5138520361de78048d6674b2" info_2="16e5c3459f965b0003043ed074e50744" location="priv-app/MDSService/MDSService.apk"
name="MapComFrame.apk" info_1="737bfa449bcb3eda3736a87d00cca982" info_2="65b55f10bf2d77dc8a5aa58d8d8a18d0" location="app/MapComFrame/MapComFrame.apk"
name="Metis.apk" info_1="e8a71c3e5138520361de78048d6674b2" info_2="16e5c3459f965b0003043ed074e50744" location="priv-app/Metis/Metis.apk"
name="MyDevices.apk" info_1="737bfa449bcb3eda3736a87d00cca982" info_2="65b55f10bf2d77dc8a5aa58d8d8a18d0" location="priv-app/MyDevices/MyDevices.apk"
name="NewSoundRecorder.apk" info_1="737bfa449bcb3eda3736a87d00cca982" info_2="65b55f10bf2d77dc8a5aa58d8d8a18d0" location="del-app/NewSoundRecorder/NewSoundRecorder.apk"
name="OBrain.apk" info_1="609343c51bbce9849561f1d6d36983e7" info_2="258d59d4b2ae9e646537365ac4a627a5" location="non_overlay/app/OBrain/OBrain.apk"
name="OCar.apk" info_1="e8a71c3e5138520361de78048d6674b2" info_2="16e5c3459f965b0003043ed074e50744" location="priv-app/OCar/OCar.apk"
name="ONet.apk" info_1="e8a71c3e5138520361de78048d6674b2" info_2="16e5c3459f965b0003043ed074e50744" location="priv-app/ONet/ONet.apk"
name="OPPOStore.apk" info_1="596a23d29ac50bf93a5f7f6c9347abe2" info_2="6bca73177b5dbddff77ad7c64f350939" location="del-app/OPPOStore/OPPOStore.apk"
name="OPSynergy.apk" info_1="e8a71c3e5138520361de78048d6674b2" info_2="16e5c3459f965b0003043ed074e50744" location="priv-app/OPSynergy/OPSynergy.apk"
name="OShare.apk" info_1="737bfa449bcb3eda3736a87d00cca982" info_2="65b55f10bf2d77dc8a5aa58d8d8a18d0" location="priv-app/OShare/OShare.apk"
name="OVoiceManagerSkillService.apk" info_1="e8a71c3e5138520361de78048d6674b2" info_2="16e5c3459f965b0003043ed074e50744" location="app/OVoiceManagerSkillService/OVoiceManagerSkillService.apk"
name="OWork.apk" info_1="737bfa449bcb3eda3736a87d00cca982" info_2="65b55f10bf2d77dc8a5aa58d8d8a18d0" location="app/OWork/OWork.apk"
name="OpenCapabilityService.apk" info_1="e8a71c3e5138520361de78048d6674b2" info_2="16e5c3459f965b0003043ed074e50744" location="app/OpenCapabilityService/OpenCapabilityService.apk"
name="OplusBootReg.apk" info_1="737bfa449bcb3eda3736a87d00cca982" info_2="65b55f10bf2d77dc8a5aa58d8d8a18d0" location="priv-app/OplusBootReg/OplusBootReg.apk"
name="OplusMatter.apk" info_1="e8a71c3e5138520361de78048d6674b2" info_2="16e5c3459f965b0003043ed074e50744" location="del-app/OplusMatter/OplusMatter.apk"
name="OplusOperationManual.apk" info_1="737bfa449bcb3eda3736a87d00cca982" info_2="65b55f10bf2d77dc8a5aa58d8d8a18d0" location="app/OplusOperationManual/OplusOperationManual.apk"
name="OplusScreenRecorder.apk" info_1="e8a71c3e5138520361de78048d6674b2" info_2="16e5c3459f965b0003043ed074e50744" location="priv-app/OplusScreenRecorder/OplusScreenRecorder.apk"
name="OplusSecurityKeyboard.apk" info_1="e8a71c3e5138520361de78048d6674b2" info_2="16e5c3459f965b0003043ed074e50744" location="app/OplusSecurityKeyboard/OplusSecurityKeyboard.apk"
name="OppoCompass2.apk" info_1="737bfa449bcb3eda3736a87d00cca982" info_2="65b55f10bf2d77dc8a5aa58d8d8a18d0" location="del-app/OppoCompass2/OppoCompass2.apk"
name="OppoGallery2.apk" info_1="737bfa449bcb3eda3736a87d00cca982" info_2="65b55f10bf2d77dc8a5aa58d8d8a18d0" location="priv-app/OppoGallery2/OppoGallery2.apk"
name="OppoNote2.apk" info_1="737bfa449bcb3eda3736a87d00cca982" info_2="65b55f10bf2d77dc8a5aa58d8d8a18d0" location="del-app/OppoNote2/OppoNote2.apk"
name="OppoTranslation.apk" info_1="6c4ff098f18677245e832d8fca6df024" info_2="2be1cdcac43ae9e4812b76753e66e5f4" location="del-app/OppoTranslation/OppoTranslation.apk"
name="OppoWeather2.apk" info_1="737bfa449bcb3eda3736a87d00cca982" info_2="65b55f10bf2d77dc8a5aa58d8d8a18d0" location="del-app/OppoWeather2/OppoWeather2.apk"
name="OppoWeatherService.apk" info_1="6c4ff098f18677245e832d8fca6df024" info_2="2be1cdcac43ae9e4812b76753e66e5f4" location="app/OppoWeatherService/OppoWeatherService.apk"
name="PhoneManager.apk" info_1="737bfa449bcb3eda3736a87d00cca982" info_2="65b55f10bf2d77dc8a5aa58d8d8a18d0" location="priv-app/PhoneManager/PhoneManager.apk"
name="Portrait.apk" info_1="e8a71c3e5138520361de78048d6674b2" info_2="16e5c3459f965b0003043ed074e50744" location="app/Portrait/Portrait.apk"
name="RemoteGuardService.apk" info_1="737bfa449bcb3eda3736a87d00cca982" info_2="65b55f10bf2d77dc8a5aa58d8d8a18d0" location="priv-app/RemoteGuardService/RemoteGuardService.apk"
name="RomUpdate.apk" info_1="e8a71c3e5138520361de78048d6674b2" info_2="16e5c3459f965b0003043ed074e50744" location="app/RomUpdate/RomUpdate.apk"
name="SOSHelper.apk" info_1="e8a71c3e5138520361de78048d6674b2" info_2="16e5c3459f965b0003043ed074e50744" location="priv-app/SOSHelper/SOSHelper.apk"
name="SceneMode.apk" info_1="737bfa449bcb3eda3736a87d00cca982" info_2="65b55f10bf2d77dc8a5aa58d8d8a18d0" location="app/SceneMode/SceneMode.apk"
name="Screenshot.apk" info_1="e8a71c3e5138520361de78048d6674b2" info_2="16e5c3459f965b0003043ed074e50744" location="priv-app/Screenshot/Screenshot.apk"
name="SecurePay.apk" info_1="737bfa449bcb3eda3736a87d00cca982" info_2="65b55f10bf2d77dc8a5aa58d8d8a18d0" location="app/SecurePay/SecurePay.apk"
name="SecurityGuard.apk" info_1="737bfa449bcb3eda3736a87d00cca982" info_2="65b55f10bf2d77dc8a5aa58d8d8a18d0" location="app/SecurityGuard/SecurityGuard.apk"
name="ShareScreen.apk" info_1="737bfa449bcb3eda3736a87d00cca982" info_2="65b55f10bf2d77dc8a5aa58d8d8a18d0" location="app/ShareScreen/ShareScreen.apk"
name="Shortcuts.apk" info_1="737bfa449bcb3eda3736a87d00cca982" info_2="65b55f10bf2d77dc8a5aa58d8d8a18d0" location="del-app/Shortcuts/Shortcuts.apk"
name="SmartEngine.apk" info_1="e8a71c3e5138520361de78048d6674b2" info_2="16e5c3459f965b0003043ed074e50744" location="app/SmartEngine/SmartEngine.apk"
name="SmartLock.apk" info_1="737bfa449bcb3eda3736a87d00cca982" info_2="65b55f10bf2d77dc8a5aa58d8d8a18d0" location="app/SmartLock/SmartLock.apk"
name="SmartSideBar.apk" info_1="737bfa449bcb3eda3736a87d00cca982" info_2="65b55f10bf2d77dc8a5aa58d8d8a18d0" location="app/SmartSideBar/SmartSideBar.apk"
name="TravelEngine.apk" info_1="e8a71c3e5138520361de78048d6674b2" info_2="16e5c3459f965b0003043ed074e50744" location="priv-app/TravelEngine/TravelEngine.apk"
name="UMS.apk" info_1="737bfa449bcb3eda3736a87d00cca982" info_2="65b55f10bf2d77dc8a5aa58d8d8a18d0" location="out/target/product/generic_arm64/data/app/UMS/UMS.apk"
name="VariUIEngine.apk" info_1="e8a71c3e5138520361de78048d6674b2" info_2="16e5c3459f965b0003043ed074e50744" location="app/VariUIEngine/VariUIEngine.apk"
name="ViewTalk.apk" info_1="737bfa449bcb3eda3736a87d00cca982" info_2="65b55f10bf2d77dc8a5aa58d8d8a18d0" location="out/target/product/generic_arm64/data/app/ViewTalk/ViewTalk.apk"
name="Wallpapers.apk" info_1="e8a71c3e5138520361de78048d6674b2" info_2="16e5c3459f965b0003043ed074e50744" location="app/Wallpapers/Wallpapers.apk"
name="dmp.apk" info_1="e8a71c3e5138520361de78048d6674b2" info_2="16e5c3459f965b0003043ed074e50744" location="priv-app/dmp/dmp.apk"
