{
    "22811":{
        "platform_config":{
            "sensor_arch":"qcom_sensor_see"
        },
        "sensor_config":{
            "android.sensor.accelerometer":{
                "type":1,
                "support":"true",
                "module":"icm4x6xx|bmi26x",
                "icm4x6xx":{
                    "mode":"batch_cali|factory_cali",
                    "offset_x": 0.0,
                    "offset_y": 0.0,
                    "offset_z": 0.0
                },
                "bmi26x":{
                    "mode":"batch_cali|factory_cali",
                    "offset_x": 0.0,
                    "offset_y": 0.0,
                    "offset_z": 0.0
                }
            },
            "android.sensor.magnetic_field":{
                "type":2,
                "support":"true",
                "module":"ak0991x|mmc56x3x",
                "ak0991x":{
                    "mode":"batch_cali"
                },
                "mmc56x3x":{
                    "mode":"batch_cali"
                }
            },
            "android.sensor.gyroscope":{
                "type":4,
                "support":"true",
                "module":"icm4x6xx|bmi26x",
                "icm4x6xx":{
                    "mode":"batch_cali|factory_cali",
                    "radian_threshold":0.05,
                    "offset_x": 0.0,
                    "offset_y": 0.0,
                    "offset_z": 0.0
                },
                "bmi26x":{
                    "mode":"batch_cali|factory_cali",
                    "radian_threshold":0.05,
                    "offset_x": 0.0,
                    "offset_y": 0.0,
                    "offset_z": 0.0
                }
            },
            "android.sensor.light":{
                "type":5,
                "support":"true",
                "module":"tcs3701",
                "tcs3701":{
                    "mode":"no_aftersale"
                }
            },
            "android.sensor.proximity":{
                "type":8,
                "support":"true",
                "module":"tcs3701",
                "tcs3701":{
                    "mode":"ignore_mean|micro_gap|factory_cali",
                    "delta_threshold":150,
                    "ps0_offset": 0,
                    "ps0_distance_delta": 110,
                    "ps0_cali_para": 0,
                    "ps1_offset": 0,
                    "ps1_distance_delta": 0
                }
            },
            "android.sensor.step_counter":{
                "type":19,
                "support":"true",
                "module":"module_ignore",
                "module_ignore":{
                    "mode":"virtual_sensor"
                }
            },
            "qti.sensor.rgb":{
                "type":33171001,
                "support":"true",
                "module":"tcs3701",
                "tcs3701":{
                    "mode":"factory_cali",
                    "R_cali":1000,
                    "G_cali":1000,
                    "B_cali":1000,
                    "C_cali":1000,
                    "W_cali":1000,
                    "F_cali":1000
                }
            },
            "qti.sensor.sensor_logger":{
                "type":33171024,
                "support":"true",
                "module":"module_ignore"
            },
            "qti.sensor.rgb_rear":{
                "type":33171052,
                "support":"true",
                "module":"as7352",
                "as7352":{
                    "mode":"factory_cali",
                    "R_cali":1000,
                    "G_cali":1000,
                    "B_cali":1000,
                    "C_cali":1000,
                    "W_cali":1000,
                    "F_cali":1000
                }
            },
            "qti.sensor.flicker_rear":{
                "type":33171054,
                "support":"true"
            },
            "qti.sensor.spectral_rear":{
                "type":33171059,
                "support":"true",
                "module":"as7352",
                "as7352":{
                    "mode":"factory_cali",
                    "XL_cali_gain1":1000,
                    "XL_cali_gain2":1000,
                    "Y_cali_gain1":1000,
                    "Y_cali_gain2":1000,
                    "Z_cali_gain1":1000,
                    "Z_cali_gain2":1000,
                    "NIR_cali_gain1":1000,
                    "NIR_cali_gain2":1000,
                    "VIS_cali_gain1":1000,
                    "VIS_cali_gain2":1000,
                    "F1_cali_gain1":1000,
                    "F1_cali_gain2":1000,
                    "F2_cali_gain1":1000,
                    "F2_cali_gain2":1000,
                    "F3_cali_gain1":1000,
                    "F3_cali_gain2":1000,
                    "F4_cali_gain1":1000,
                    "F4_cali_gain2":1000,
                    "F5_cali_gain1":1000,
                    "F5_cali_gain2":1000,
                    "F6_cali_gain1":1000,
                    "F6_cali_gain2":1000,
                    "F7_cali_gain1":1000,
                    "F7_cali_gain2":1000,
                    "F8_cali_gain1":1000,
                    "F8_cali_gain2":1000,
                    "F_cali_gain1":1000,
                    "F_cali_gain2":1000
                }
            }
        }
    },
    "sku_23":{
        "platform_config":{
            "sensor_arch":"qcom_sensor_see"
        },
        "sensor_config":{
            "android.sensor.accelerometer":{
                "type":1,
                "support":"true",
                "module":"icm4x6xx|bmi26x",
                "icm4x6xx":{
                    "mode":"batch_cali|factory_cali",
                    "offset_x": 0.0,
                    "offset_y": 0.0,
                    "offset_z": 0.0
                },
                "bmi26x":{
                    "mode":"batch_cali|factory_cali",
                    "offset_x": 0.0,
                    "offset_y": 0.0,
                    "offset_z": 0.0
                }
            },
            "android.sensor.magnetic_field":{
                "type":2,
                "support":"true",
                "module":"ak0991x|mmc56x3x",
                "ak0991x":{
                    "mode":"batch_cali"
                },
                "mmc56x3x":{
                    "mode":"batch_cali"
                }
            },
            "android.sensor.gyroscope":{
                "type":4,
                "support":"true",
                "module":"icm4x6xx|bmi26x",
                "icm4x6xx":{
                    "mode":"batch_cali|factory_cali",
                    "radian_threshold":0.05,
                    "offset_x": 0.0,
                    "offset_y": 0.0,
                    "offset_z": 0.0
                },
                "bmi26x":{
                    "mode":"batch_cali|factory_cali",
                    "radian_threshold":0.05,
                    "offset_x": 0.0,
                    "offset_y": 0.0,
                    "offset_z": 0.0
                }
            },
            "android.sensor.light":{
                "type":5,
                "support":"true",
                "module":"tcs3701",
                "tcs3701":{
                    "mode":"no_aftersale"
                }
            },
            "android.sensor.proximity":{
                "type":8,
                "support":"true",
                "module":"tcs3701",
                "tcs3701":{
                    "mode":"ignore_mean|micro_gap|factory_cali",
                    "delta_threshold":150,
                    "ps0_offset": 0,
                    "ps0_distance_delta": 110,
                    "ps0_cali_para": 0,
                    "ps1_offset": 0,
                    "ps1_distance_delta": 0
                }
            },
            "android.sensor.step_counter":{
                "type":19,
                "support":"true",
                "module":"module_ignore",
                "module_ignore":{
                    "mode":"virtual_sensor"
                }
            },
            "qti.sensor.rgb":{
                "type":33171001,
                "support":"true",
                "module":"tcs3701",
                "tcs3701":{
                    "mode":"factory_cali",
                    "R_cali":1000,
                    "G_cali":1000,
                    "B_cali":1000,
                    "C_cali":1000,
                    "W_cali":1000,
                    "F_cali":1000
                }
            },
            "qti.sensor.sensor_logger":{
                "type":33171024,
                "support":"true",
                "module":"module_ignore"
            },
            "qti.sensor.rgb_rear":{
                "type":33171052,
                "support":"true",
                "module":"as7352",
                "as7352":{
                    "mode":"factory_cali",
                    "R_cali":1000,
                    "G_cali":1000,
                    "B_cali":1000,
                    "C_cali":1000,
                    "W_cali":1000,
                    "F_cali":1000
                }
            },
            "qti.sensor.flicker_rear":{
                "type":33171054,
                "support":"true"
            },
            "qti.sensor.spectral_rear":{
                "type":33171059,
                "support":"true",
                "module":"as7352",
                "as7352":{
                    "mode":"factory_cali",
                    "XL_cali_gain1":1000,
                    "XL_cali_gain2":1000,
                    "Y_cali_gain1":1000,
                    "Y_cali_gain2":1000,
                    "Z_cali_gain1":1000,
                    "Z_cali_gain2":1000,
                    "NIR_cali_gain1":1000,
                    "NIR_cali_gain2":1000,
                    "VIS_cali_gain1":1000,
                    "VIS_cali_gain2":1000,
                    "F1_cali_gain1":1000,
                    "F1_cali_gain2":1000,
                    "F2_cali_gain1":1000,
                    "F2_cali_gain2":1000,
                    "F3_cali_gain1":1000,
                    "F3_cali_gain2":1000,
                    "F4_cali_gain1":1000,
                    "F4_cali_gain2":1000,
                    "F5_cali_gain1":1000,
                    "F5_cali_gain2":1000,
                    "F6_cali_gain1":1000,
                    "F6_cali_gain2":1000,
                    "F7_cali_gain1":1000,
                    "F7_cali_gain2":1000,
                    "F8_cali_gain1":1000,
                    "F8_cali_gain2":1000,
                    "F_cali_gain1":1000,
                    "F_cali_gain2":1000
                }
            },
            "qti.sensor.sar":{
                "type":33171025,
                "support":"true",
                "module":"sx933x",
                "sx933x":{
                    "mode":"single_channel",
                    "test_round": 1
                }
            }
        }
    }
}
